Tutorial • dawson.pkg
…
My package has 5 functions that clean data by removing NA’s,
Transforming the data, creating a. ar plot, performing a stats analysis
and finally mapping the nesting coordinates onto a map. This tutorial
will go through how to use each one of them and why you might want to
use it.

1st function: cleaning_data This function will remove all NA values
from the data. This function will provide an efficient way to remove all
of the NA values that may interfere with your manipulation of the
data.Once you’ve downloaded and saved the dataset, you simply enter it
within the function to clean it.

clean(drago)

## # A tibble: 23 × 15
##    sample_number date                turtle_id     e2   vtg   test  trig   bhb
##            <dbl> <dttm>              <list>     <dbl> <dbl>  <dbl> <dbl> <dbl>
##  1             3 2023-05-31 00:00:00 <dttm [1]>     5    90 2284.   957   522.
##  2             8 2023-06-15 00:00:00 <dttm [1]>    11   389 2227.   906.  334.
##  3             9 2023-06-17 00:00:00 <chr [1]>     13   875 1556.   720.  108 
##  4            10 2023-06-22 00:00:00 <chr [1]>      5   569 2856    984.  228.
##  5            14 2023-06-27 00:00:00 <chr [1]>      9   442  392.   469.  673.
##  6            15 2023-06-27 00:00:00 <chr [1]>      7   816 3609.   724.  273.
##  7            17 2023-06-28 00:00:00 <chr [1]>     13   112 3388.  1330.  124.
##  8            21 2023-07-05 00:00:00 <chr [1]>      9    96 1199.   718.  386.
##  9            23 2023-07-09 00:00:00 <chr [1]>      5   461   45.2  257   589.
## 10            25 2023-07-11 00:00:00 <chr [1]>     12   139 3095.  1123   677.
## # ℹ 13 more rows
## # ℹ 7 more variables: total_protein <dbl>, output <dbl>, ccl <list>,
## #   scl <list>, latitude <dbl>, longitude <dbl>, time <dbl>
…
